<?xml version="1.0" standalone="no"?>
<!DOCTYPE svg PUBLIC "-//W3C//DTD SVG 20010904//EN"
 "http://www.w3.org/TR/2001/REC-SVG-20010904/DTD/svg10.dtd">
<svg version="1.0" xmlns="http://www.w3.org/2000/svg"
 width="340.000000pt" height="340.000000pt" viewBox="0 0 340.000000 340.000000"
 preserveAspectRatio="xMidYMid meet">
<metadata>
Created by potrace 1.11, written by Peter Selinger 2001-2013
</metadata>
<g transform="translate(0.000000,340.000000) scale(0.100000,-0.100000)"
fill="#000000" stroke="none">
<path d="M1458 3361 c-15 -5 -29 -7 -31 -5 -5 5 -293 -71 -322 -85 -55 -26
-119 -51 -131 -51 -8 0 -14 -3 -14 -8 0 -4 -17 -15 -37 -25 -21 -9 -60 -30
-88 -47 -27 -17 -56 -33 -62 -36 -15 -7 -17 -44 -3 -44 6 0 10 -6 10 -14 0 -7
15 -44 34 -82 19 -38 44 -91 56 -119 77 -173 90 -195 109 -195 11 0 22 4 26 9
3 5 19 12 35 16 17 4 30 11 30 16 0 5 8 9 18 9 9 0 26 7 36 15 11 8 28 15 38
15 10 0 18 5 18 10 0 6 6 10 14 10 8 0 27 6 43 14 58 29 141 57 197 66 32 5
65 12 74 14 10 3 35 8 57 11 22 3 58 9 80 12 51 8 90 8 140 0 22 -4 58 -9 80
-12 51 -7 67 -11 145 -30 11 -3 30 -8 43 -11 30 -7 39 -10 62 -18 34 -13 50
-17 51 -14 1 2 12 -6 24 -17 12 -11 23 -19 24 -17 2 5 39 -10 121 -49 39 -17
72 -32 75 -31 3 0 13 -6 22 -15 16 -14 19 -12 40 23 13 22 23 41 23 44 1 5 36
80 83 180 15 30 27 57 27 60 1 3 9 21 20 40 11 19 19 38 20 42 0 3 3 10 8 14
17 17 4 43 -35 69 -24 16 -44 27 -44 24 -1 -2 -10 3 -20 12 -66 55 -339 155
-534 195 -52 11 -531 14 -562 5z"/>
<path d="M324 2678 c-63 -85 -164 -252 -164 -270 0 -6 -9 -26 -21 -44 -11 -19
-17 -34 -14 -34 4 0 3 -6 -2 -12 -13 -16 -53 -124 -59 -157 -3 -14 -7 -28 -9
-32 -3 -4 -7 -24 -11 -45 -3 -22 -9 -43 -14 -49 -4 -5 -8 -17 -8 -25 0 -8 -4
-33 -9 -55 -9 -46 -10 -470 -2 -530 8 -55 77 -303 94 -340 30 -65 45 -104 45
-114 0 -6 4 -11 8 -11 4 0 16 -20 26 -43 15 -38 21 -43 42 -39 13 2 24 8 24
12 0 5 15 12 33 15 17 4 51 16 74 26 23 11 48 19 55 19 8 0 22 6 33 14 11 7
36 17 55 21 19 4 46 14 60 23 20 14 59 18 213 20 160 3 187 6 187 19 0 8 12
29 26 47 43 52 148 196 168 232 l19 34 32 -48 c18 -26 40 -54 49 -61 9 -7 16
-18 16 -24 0 -5 15 -27 33 -47 49 -58 97 -126 97 -138 0 -9 80 -12 300 -12
220 0 300 3 300 12 0 12 48 80 98 138 17 20 32 42 32 47 0 6 7 17 16 24 9 7
31 35 49 61 l32 48 19 -34 c20 -36 125 -180 168 -232 14 -18 26 -39 26 -48 0
-14 20 -16 169 -16 136 0 176 -3 207 -17 22 -9 44 -18 49 -19 6 -1 24 -8 40
-15 17 -7 32 -13 35 -14 15 -5 49 -19 77 -31 17 -8 33 -14 36 -14 2 0 22 -8
43 -17 22 -9 41 -17 44 -18 3 0 11 -4 18 -9 7 -4 14 -6 16 -5 18 26 66 112 66
120 0 7 9 27 21 45 11 19 17 34 14 34 -4 0 -3 6 2 13 12 14 53 122 59 154 2
12 9 34 14 48 5 14 7 25 4 25 -2 0 0 8 5 18 5 9 12 33 16 52 3 19 9 51 13 70
16 84 6 569 -13 599 -2 4 -18 59 -35 122 -17 63 -37 128 -45 144 -28 61 -45
103 -45 113 0 6 -4 12 -8 14 -4 2 -20 28 -35 58 -32 67 -56 108 -79 134 -10
11 -18 23 -18 27 0 4 -6 14 -13 21 -7 7 -23 28 -36 46 -12 17 -28 32 -34 32
-7 0 -49 -22 -95 -49 -46 -28 -96 -56 -112 -63 -17 -7 -30 -16 -30 -20 0 -5
-7 -8 -15 -8 -8 0 -15 -4 -15 -10 0 -5 -4 -10 -9 -10 -7 0 -134 -72 -149 -85
-1 -1 16 -33 39 -70 49 -80 75 -126 103 -180 12 -22 23 -42 26 -45 9 -9 40
-81 40 -93 0 -7 6 -24 14 -39 20 -38 35 -87 40 -136 3 -24 12 -68 21 -98 10
-34 14 -73 10 -107 -3 -28 -7 -82 -9 -118 -3 -36 -7 -77 -10 -90 -3 -13 -8
-36 -11 -51 -3 -16 -7 -40 -10 -55 -6 -30 -29 -99 -50 -148 -7 -16 -18 -47
-25 -68 -12 -40 -20 -40 -44 1 -6 11 -40 58 -76 105 -36 48 -84 112 -107 144
-23 32 -54 73 -69 91 -15 18 -32 41 -38 51 -10 17 -82 115 -175 237 -18 24
-39 44 -46 44 -14 0 -43 -32 -92 -103 -20 -29 -41 -56 -47 -62 -6 -5 -23 -28
-39 -50 -15 -22 -43 -60 -63 -85 -19 -25 -46 -62 -60 -83 -13 -21 -34 -48 -46
-62 -11 -13 -26 -32 -32 -43 -18 -31 -140 -192 -146 -192 -6 0 -128 161 -146
192 -6 11 -21 30 -32 43 -11 13 -29 36 -39 52 -10 15 -38 54 -63 86 -25 33
-55 73 -67 90 -26 37 -63 84 -79 101 -6 6 -13 16 -15 23 -8 22 -72 93 -84 93
-7 0 -28 -20 -46 -44 -93 -122 -165 -220 -175 -237 -6 -10 -23 -33 -38 -51
-15 -18 -46 -59 -69 -91 -23 -32 -71 -96 -107 -143 -36 -48 -73 -99 -83 -115
-11 -16 -22 -29 -26 -29 -9 0 -38 70 -46 113 -4 20 -11 37 -15 37 -5 0 -14 26
-20 58 -6 31 -16 75 -21 98 -8 39 -16 135 -23 269 -2 33 3 78 10 100 7 22 18
60 24 85 35 139 84 259 145 355 78 123 125 204 125 214 0 6 -8 14 -17 18 -10
3 -31 16 -48 27 -33 24 -45 31 -101 64 -56 32 -75 44 -111 69 -17 13 -35 23
-38 23 -4 0 -19 9 -34 19 -60 43 -70 39 -137 -51z"/>
<path d="M1119 2606 c-93 -122 -165 -220 -175 -237 -6 -10 -23 -33 -38 -51
-15 -18 -46 -59 -69 -91 -23 -32 -70 -95 -104 -140 -34 -45 -88 -119 -119
-164 -31 -46 -60 -83 -65 -83 -5 0 -9 -11 -9 -25 l0 -25 205 0 c182 0 205 2
205 16 0 9 12 30 26 48 43 52 148 196 168 232 l19 34 32 -48 c18 -26 40 -54
49 -61 9 -7 16 -18 16 -24 0 -5 15 -27 33 -47 49 -58 97 -126 97 -138 0 -9 80
-12 300 -12 220 0 300 3 300 12 0 12 48 80 98 138 17 20 32 42 32 47 0 6 7 17
16 24 9 7 31 35 49 61 l32 48 19 -34 c20 -36 125 -180 168 -232 14 -18 26 -39
26 -48 0 -14 23 -16 205 -16 l205 0 0 25 c0 14 -4 25 -8 25 -7 0 -77 93 -107
141 -5 9 -39 55 -75 102 -36 48 -84 112 -107 144 -23 32 -54 73 -69 91 -15 18
-32 41 -38 51 -10 17 -82 115 -175 237 -18 24 -39 44 -46 44 -14 0 -43 -32
-92 -103 -20 -29 -41 -56 -47 -62 -6 -5 -23 -28 -39 -50 -15 -22 -43 -60 -63
-85 -19 -25 -46 -62 -60 -83 -13 -21 -34 -48 -46 -62 -11 -13 -26 -32 -32 -43
-18 -31 -140 -192 -146 -192 -6 0 -128 161 -146 192 -6 11 -21 30 -32 43 -11
13 -29 36 -39 52 -10 15 -38 54 -63 86 -25 33 -55 73 -67 90 -26 37 -63 84
-79 101 -6 6 -13 16 -15 23 -8 22 -72 93 -84 93 -7 0 -28 -20 -46 -44z"/>
<path d="M743 837 c-51 -75 -112 -161 -170 -242 -72 -99 -72 -101 -32 -138 47
-45 187 -151 225 -170 17 -9 36 -23 43 -31 7 -9 17 -14 21 -11 5 3 11 1 15 -5
7 -11 86 -49 96 -47 4 1 16 -7 28 -17 12 -11 21 -16 21 -11 0 4 6 3 13 -2 11
-10 112 -50 147 -59 8 -2 54 -15 102 -28 48 -13 104 -28 125 -32 40 -8 526
-12 578 -5 48 7 317 80 352 96 17 8 34 15 37 15 13 0 163 75 225 112 34 21 65
38 67 38 3 0 17 11 32 25 15 14 32 25 39 25 6 0 13 3 15 8 2 4 23 24 48 44 94
77 102 86 95 107 -3 12 -11 21 -16 21 -5 0 -9 7 -9 15 0 8 -4 15 -9 15 -5 0
-12 8 -15 18 -4 10 -14 27 -24 38 -9 11 -21 27 -27 36 -60 99 -154 228 -168
233 -12 4 -38 -8 -81 -39 -36 -25 -67 -46 -71 -46 -3 0 -18 -11 -33 -25 -15
-14 -32 -25 -39 -25 -7 0 -13 -4 -13 -10 0 -5 -7 -10 -15 -10 -8 0 -15 -4 -15
-10 0 -5 -6 -10 -12 -10 -7 0 -24 -9 -38 -20 -14 -11 -33 -20 -42 -20 -10 0
-18 -4 -18 -10 0 -5 -8 -10 -17 -10 -10 0 -26 -7 -36 -15 -11 -7 -36 -17 -58
-20 -21 -4 -41 -11 -44 -16 -7 -10 -66 -27 -124 -34 -24 -3 -47 -7 -51 -10
-23 -14 -350 -24 -410 -12 -16 3 -86 25 -110 34 -8 4 -17 7 -20 8 -28 7 -92
30 -120 43 -19 9 -37 17 -40 17 -11 2 -97 47 -130 68 -19 12 -52 33 -72 46
-21 12 -38 28 -38 34 0 6 -3 8 -6 4 -4 -3 -32 13 -63 37 -95 73 -90 73 -138 3z"/>
</g>
</svg>
